Profile_pic,Name,Mobile,Email,Gender,Country_name,State_name,City_name,Address
"Bahamas The",Eleuthera,Freetown,"Lucky Khare",8251086968,luckykhare10@gmail.com,male,"laxmi nagar sausar",WhatsApp_Image_2022-06-16_at_12_15_52_AM1.jpeg,10
India,"Madhya Pradesh",Chhindwara,"Lucky Khare",8251086968,luckykhare10@gmail.com,female,"laxmi nagar sausar",singaa.jpg,11
Bangladesh,Gopalganj,Gopalganj,"Lucky Khare",8251086968,luckykhare10@gmail.com,male,"laxmi nagar sausar",20023898_719657544888944_7025153913142270059_o.jpg,14
Afghanistan,Kabul,Kabul,"Shubham Khare",9329881329,shubham.khare@gmail.com,male,bholaram,WhatsApp_Image_2022-11-19_at_18_41_11.jpeg,19
